Is the NDA a mutual NDA or does it just seek to protect the confidential information of one of the parties?,Not found
Does the recipient’s obligations under the NDA to keep the confidential information confidential expire or are they perpetual?,Not found
Does the NDA state that the disclosing party does not represent that the confidential information is accurate or error-free?,Not found
Is there a clause confirming that the disclosing party is entitled to an injunction against the recipient for any actual or threatened default under the NDA?,Not found
Is there an indemnity from the recipient?,Not found
Is there a clause stating that the recipient cannot transfer any right or liability of the recipient under the NDA to a third party without the prior written consent of the disclosing party?,Not found
Does the NDA confirm that it is governed by a law in force in Australia?  ,Not found
Does the NDA state that the parties irrevocably submit to the jurisdiction of a court located in Australia? ,Not found
Does the NDA contain exclusions for information that is generally known or in the public domain?,Not found
Does the NDA exclude information that the recipient can prove was already in its possession prior to the information being disclosed to it by the disclosing party?,Not found
Does the NDA permit disclosure by the recipient in compliance with any court order or binding order of any governmental agency?,Not found
Does the NDA permit disclosure in compliance with any applicable law or listing rule of a stock exchange?,Not found
Does the NDA require the recipient to return or destroy the confidential information pursuant to a demand by the disclosing party?,Not found
Does the NDA specify that the confidential information can only be used for a specific purpose?,Not found
Does the NDA contain an “entire agreement” clause?,Not found
Does the NDA permit the recipient to disclose the confidential information to its representatives?  ,Not found
Does the NDA make the recipient responsible for any breach of confidence by the recipient’s representatives?,Not found
Does the NDA state that the recipient cannot use the confidential information to compete with the disclosing party?,Not found
Is the NDA dated?,Not found
Does the NDA state the names and addresses of the parties?,Not found
